{
 "access_token_uri": "https://p-spring-cloud-services.uaa.run.pivotal.io/oauth/token",
 "client_id": "p-config-server-9524038c-b8d4-4f85-8429-2a977b2aee1b",
 "client_secret": "gI0tMqBmM4iJ",
 "uri": "https://config-46025e3e-c2ca-4825-b4de-1ad4bcfa010e.cfapps.io"
}
